^C:\USERS\SHAHAR\DOCUMENTS\VISUAL STUDIO 2013\PROJECTS\SFML_SHRIMPENGIEN\SFML_SHRIMPENGIEN\DEBUG\BULLET.OBJ|C:\USERS\SHAHAR\DOCUMENTS\VISUAL STUDIO 2013\PROJECTS\SFML_SHRIMPENGIEN\SFML_SHRIMPENGIEN\DEBUG\CAMERA.OBJ|C:\USERS\SHAHAR\DOCUMENTS\VISUAL STUDIO 2013\PROJECTS\SFML_SHRIMPENGIEN\SFML_SHRIMPENGIEN\DEBUG\CUBE.OBJ|C:\USERS\SHAHAR\DOCUMENTS\VISUAL STUDIO 2013\PROJECTS\SFML_SHRIMPENGIEN\SFML_SHRIMPENGIEN\DEBUG\GAMEOBJECT2D.OBJ|C:\USERS\SHAHAR\DOCUMENTS\VISUAL STUDIO 2013\PROJECTS\SFML_SHRIMPENGIEN\SFML_SHRIMPENGIEN\DEBUG\MAIN.OBJ|C:\USERS\SHAHAR\DOCUMENTS\VISUAL STUDIO 2013\PROJECTS\SFML_SHRIMPENGIEN\SFML_SHRIMPENGIEN\DEBUG\MOUSEUTILS.OBJ|C:\USERS\SHAHAR\DOCUMENTS\VISUAL STUDIO 2013\PROJECTS\SFML_SHRIMPENGIEN\SFML_SHRIMPENGIEN\DEBUG\PLAYER.OBJ|C:\USERS\SHAHAR\DOCUMENTS\VISUAL STUDIO 2013\PROJECTS\SFML_SHRIMPENGIEN\SFML_SHRIMPENGIEN\DEBUG\QUAD3D.OBJ|C:\USERS\SHAHAR\DOCUMENTS\VISUAL STUDIO 2013\PROJECTS\SFML_SHRIMPENGIEN\SFML_SHRIMPENGIEN\DEBUG\RENDERER.OBJ|C:\USERS\SHAHAR\DOCUMENTS\VISUAL STUDIO 2013\PROJECTS\SFML_SHRIMPENGIEN\SFML_SHRIMPENGIEN\DEBUG\SHOTHANDLER.OBJ|C:\USERS\SHAHAR\DOCUMENTS\VISUAL STUDIO 2013\PROJECTS\SFML_SHRIMPENGIEN\SFML_SHRIMPENGIEN\DEBUG\UIOBJECT.OBJ|C:\USERS\SHAHAR\DOCUMENTS\VISUAL STUDIO 2013\PROJECTS\SFML_SHRIMPENGIEN\SFML_SHRIMPENGIEN\DEBUG\WINDOW.OBJ
C:\USERS\SHAHAR\DOCUMENTS\VISUAL STUDIO 2013\LIBS\SFML-2.2\LIB\SFML-MAIN-D.LIB
C:\USERS\SHAHAR\DOCUMENTS\VISUAL STUDIO 2013\LIBS\SFML-2.2\LIB\SFML-GRAPHICS-D.LIB
C:\USERS\SHAHAR\DOCUMENTS\VISUAL STUDIO 2013\LIBS\SFML-2.2\LIB\SFML-WINDOW-D.LIB
C:\USERS\SHAHAR\DOCUMENTS\VISUAL STUDIO 2013\LIBS\SFML-2.2\LIB\SFML-SYSTEM-D.LIB
C:\USERS\SHAHAR\DOCUMENTS\VISUAL STUDIO 2013\LIBS\SFML-2.2\LIB\SFML-AUDIO-D.LIB
C:\USERS\SHAHAR\DOCUMENTS\VISUAL STUDIO 2013\LIBS\SFML-2.2\LIB\SFML-NETWORK-D.LIB
C:\PROGRAM FILES (X86)\WINDOWS KITS\8.1\LIB\WINV6.3\UM\X86\OPENGL32.LIB
C:\PROGRAM FILES (X86)\WINDOWS KITS\8.1\LIB\WINV6.3\UM\X86\GLU32.LIB
C:\PROGRAM FILES (X86)\WINDOWS KITS\8.1\LIB\WINV6.3\UM\X86\KERNEL32.LIB
C:\PROGRAM FILES (X86)\WINDOWS KITS\8.1\LIB\WINV6.3\UM\X86\USER32.LIB
C:\PROGRAM FILES (X86)\WINDOWS KITS\8.1\LIB\WINV6.3\UM\X86\GDI32.LIB
C:\PROGRAM FILES (X86)\WINDOWS KITS\8.1\LIB\WINV6.3\UM\X86\WINSPOOL.LIB
C:\PROGRAM FILES (X86)\WINDOWS KITS\8.1\LIB\WINV6.3\UM\X86\COMDLG32.LIB
C:\PROGRAM FILES (X86)\WINDOWS KITS\8.1\LIB\WINV6.3\UM\X86\ADVAPI32.LIB
C:\PROGRAM FILES (X86)\WINDOWS KITS\8.1\LIB\WINV6.3\UM\X86\SHELL32.LIB
C:\PROGRAM FILES (X86)\WINDOWS KITS\8.1\LIB\WINV6.3\UM\X86\OLE32.LIB
C:\PROGRAM FILES (X86)\WINDOWS KITS\8.1\LIB\WINV6.3\UM\X86\OLEAUT32.LIB
C:\PROGRAM FILES (X86)\WINDOWS KITS\8.1\LIB\WINV6.3\UM\X86\UUID.LIB
C:\PROGRAM FILES (X86)\WINDOWS KITS\8.1\LIB\WINV6.3\UM\X86\ODBC32.LIB
C:\PROGRAM FILES (X86)\WINDOWS KITS\8.1\LIB\WINV6.3\UM\X86\ODBCCP32.LIB
C:\USERS\SHAHAR\DOCUMENTS\VISUAL STUDIO 2013\PROJECTS\SFML_SHRIMPENGIEN\SFML_SHRIMPENGIEN\DEBUG\CAMERA.OBJ
C:\USERS\SHAHAR\DOCUMENTS\VISUAL STUDIO 2013\PROJECTS\SFML_SHRIMPENGIEN\SFML_SHRIMPENGIEN\DEBUG\RENDERER.OBJ
C:\USERS\SHAHAR\DOCUMENTS\VISUAL STUDIO 2013\PROJECTS\SFML_SHRIMPENGIEN\SFML_SHRIMPENGIEN\DEBUG\CUBE.OBJ
C:\USERS\SHAHAR\DOCUMENTS\VISUAL STUDIO 2013\PROJECTS\SFML_SHRIMPENGIEN\SFML_SHRIMPENGIEN\DEBUG\QUAD3D.OBJ
C:\USERS\SHAHAR\DOCUMENTS\VISUAL STUDIO 2013\PROJECTS\SFML_SHRIMPENGIEN\SFML_SHRIMPENGIEN\DEBUG\WINDOW.OBJ
C:\USERS\SHAHAR\DOCUMENTS\VISUAL STUDIO 2013\PROJECTS\SFML_SHRIMPENGIEN\SFML_SHRIMPENGIEN\DEBUG\MOUSEUTILS.OBJ
C:\USERS\SHAHAR\DOCUMENTS\VISUAL STUDIO 2013\PROJECTS\SFML_SHRIMPENGIEN\SFML_SHRIMPENGIEN\DEBUG\MAIN.OBJ
C:\USERS\SHAHAR\DOCUMENTS\VISUAL STUDIO 2013\PROJECTS\SFML_SHRIMPENGIEN\SFML_SHRIMPENGIEN\DEBUG\BULLET.OBJ
C:\USERS\SHAHAR\DOCUMENTS\VISUAL STUDIO 2013\PROJECTS\SFML_SHRIMPENGIEN\SFML_SHRIMPENGIEN\DEBUG\GAMEOBJECT2D.OBJ
C:\USERS\SHAHAR\DOCUMENTS\VISUAL STUDIO 2013\PROJECTS\SFML_SHRIMPENGIEN\SFML_SHRIMPENGIEN\DEBUG\PLAYER.OBJ
C:\USERS\SHAHAR\DOCUMENTS\VISUAL STUDIO 2013\PROJECTS\SFML_SHRIMPENGIEN\SFML_SHRIMPENGIEN\DEBUG\UIOBJECT.OBJ
C:\USERS\SHAHAR\DOCUMENTS\VISUAL STUDIO 2013\PROJECTS\SFML_SHRIMPENGIEN\SFML_SHRIMPENGIEN\DEBUG\SHOTHANDLER.OBJ
C:\WINDOWS\SYSTEM32\TZRES.DLL
C:\WINDOWS\GLOBALIZATION\SORTING\SORTDEFAULT.NLS
C:\PROGRAM FILES (X86)\MICROSOFT VISUAL STUDIO 12.0\VC\LIB\MSVCPRTD.LIB
C:\PROGRAM FILES (X86)\MICROSOFT VISUAL STUDIO 12.0\VC\LIB\MSVCRTD.LIB
C:\PROGRAM FILES (X86)\MICROSOFT VISUAL STUDIO 12.0\VC\LIB\OLDNAMES.LIB
